0 info it worked if it ends with ok
1 verbose cli [ '/usr/local/bin/node',
1 verbose cli   '/usr/local/bin/npm',
1 verbose cli   'view',
1 verbose cli   '@ionic/cli-plugin-cordova',
1 verbose cli   'dist-tags.latest',
1 verbose cli   '--json' ]
2 info using npm@3.10.10
3 info using node@v6.11.0
4 silly mapToRegistry name @ionic/cli-plugin-cordova
5 silly mapToRegistry scope (from package name) @ionic
6 verbose mapToRegistry no registry URL found in name for scope @ionic
7 silly mapToRegistry using default registry
8 silly mapToRegistry registry https://registry.npmjs.org/
9 silly mapToRegistry data Result {
9 silly mapToRegistry   raw: '@ionic/cli-plugin-cordova',
9 silly mapToRegistry   scope: '@ionic',
9 silly mapToRegistry   escapedName: '@ionic%2fcli-plugin-cordova',
9 silly mapToRegistry   name: '@ionic/cli-plugin-cordova',
9 silly mapToRegistry   rawSpec: '',
9 silly mapToRegistry   spec: 'latest',
9 silly mapToRegistry   type: 'tag' }
10 silly mapToRegistry uri https://registry.npmjs.org/@ionic%2fcli-plugin-cordova
11 verbose request uri https://registry.npmjs.org/@ionic%2fcli-plugin-cordova
12 verbose request no auth needed
13 info attempt registry request try #1 at 9:58:10 AM
14 verbose request id 821b0aeeb22f2972
15 verbose etag W/"59652cbd-9e346"
16 verbose lastModified Tue, 11 Jul 2017 19:53:33 GMT
17 http request GET https://registry.npmjs.org/@ionic%2fcli-plugin-cordova
18 info retry will retry, error on last attempt: Error: getaddrinfo ENOTFOUND registry.npmjs.org registry.npmjs.org:443
19 info attempt registry request try #2 at 9:58:50 AM
20 verbose etag W/"59652cbd-9e346"
21 verbose lastModified Tue, 11 Jul 2017 19:53:33 GMT
22 http request GET https://registry.npmjs.org/@ionic%2fcli-plugin-cordova
23 info retry will retry, error on last attempt: Error: connect ENETUNREACH 207.69.188.186:443
24 info attempt registry request try #3 at 10:00:01 AM
25 verbose etag W/"59652cbd-9e346"
26 verbose lastModified Tue, 11 Jul 2017 19:53:33 GMT
27 http request GET https://registry.npmjs.org/@ionic%2fcli-plugin-cordova
28 http 200 https://registry.npmjs.org/@ionic%2fcli-plugin-cordova
29 verbose headers { 'content-type': 'application/json',
29 verbose headers   server: 'nginx/1.10.3',
29 verbose headers   'last-modified': 'Wed, 12 Jul 2017 21:40:31 GMT',
29 verbose headers   etag: 'W/"5966974f-9faad"',
29 verbose headers   'content-encoding': 'gzip',
29 verbose headers   'cache-control': 'max-age=0',
29 verbose headers   'transfer-encoding': 'chunked',
29 verbose headers   'accept-ranges': 'bytes',
29 verbose headers   date: 'Thu, 13 Jul 2017 03:00:03 GMT',
29 verbose headers   via: '1.1 varnish',
29 verbose headers   age: '0',
29 verbose headers   connection: 'keep-alive',
29 verbose headers   'x-served-by': 'cache-sin18028-SIN',
29 verbose headers   'x-cache': 'MISS',
29 verbose headers   'x-cache-hits': '0',
29 verbose headers   'x-timer': 'S1499914803.568627,VS0,VE518',
29 verbose headers   vary: 'Accept-Encoding' }
30 silly get cb [ 200,
30 silly get   { 'content-type': 'application/json',
30 silly get     server: 'nginx/1.10.3',
30 silly get     'last-modified': 'Wed, 12 Jul 2017 21:40:31 GMT',
30 silly get     etag: 'W/"5966974f-9faad"',
30 silly get     'content-encoding': 'gzip',
30 silly get     'cache-control': 'max-age=0',
30 silly get     'transfer-encoding': 'chunked',
30 silly get     'accept-ranges': 'bytes',
30 silly get     date: 'Thu, 13 Jul 2017 03:00:03 GMT',
30 silly get     via: '1.1 varnish',
30 silly get     age: '0',
30 silly get     connection: 'keep-alive',
30 silly get     'x-served-by': 'cache-sin18028-SIN',
30 silly get     'x-cache': 'MISS',
30 silly get     'x-cache-hits': '0',
30 silly get     'x-timer': 'S1499914803.568627,VS0,VE518',
30 silly get     vary: 'Accept-Encoding' } ]
31 verbose get saving @ionic/cli-plugin-cordova to /Users/vmimac/.npm/registry.npmjs.org/_40ionic_252fcli-plugin-cordova/.cache.json
32 verbose correctMkdir /Users/vmimac/.npm correctMkdir not in flight; initializing
33 verbose exit [ 0, true ]
34 verbose stack Error: write EPIPE
34 verbose stack     at exports._errnoException (util.js:1018:11)
34 verbose stack     at WriteWrap.afterWrite (net.js:800:14)
35 verbose cwd /Users/vmimac/Desktop/ionic-app
36 error Darwin 16.6.0
37 error argv "/usr/local/bin/node" "/usr/local/bin/npm" "view" "@ionic/cli-plugin-cordova" "dist-tags.latest" "--json"
38 error node v6.11.0
39 error npm  v3.10.10
40 error code EPIPE
41 error errno EPIPE
42 error syscall write
43 error write EPIPE
44 error If you need help, you may report this error at:
44 error     <https://github.com/npm/npm/issues>
45 verbose exit [ 1, true ]
