{
    "cordova-plugin-console": {
        "source": {
            "type": "registry",
            "id": "cordova-plugin-console@1.0.5"
        },
        "is_top_level": true,
        "variables": {}
    },
    "cordova-plugin-device": {
        "source": {
            "type": "registry",
            "id": "cordova-plugin-device@1.1.4"
        },
        "is_top_level": true,
        "variables": {}
    },
    "cordova-plugin-statusbar": {
        "source": {
            "type": "registry",
            "id": "cordova-plugin-statusbar@2.2.2"
        },
        "is_top_level": true,
        "variables": {}
    },
    "cordova-plugin-whitelist": {
        "source": {
            "type": "registry",
            "id": "cordova-plugin-whitelist@^1.3.1"
        },
        "is_top_level": true,
        "variables": {}
    },
    "ionic-plugin-keyboard": {
        "source": {
            "type": "registry",
            "id": "ionic-plugin-keyboard@~2.2.1"
        },
        "is_top_level": true,
        "variables": {}
    },
    "cordova-plugin-file": {
        "source": {
            "type": "registry",
            "id": "cordova-plugin-file@>=2.0.0"
        },
        "is_top_level": false,
        "variables": {}
    },
    "cordova-plugin-compat": {
        "source": {
            "type": "registry",
            "id": "cordova-plugin-compat@^1.0.0"
        },
        "is_top_level": false,
        "variables": {}
    },
    "phonegap-plugin-push": {
        "source": {
            "type": "registry",
            "id": "phonegap-plugin-push@^1.10.5"
        },
        "is_top_level": true,
        "variables": {}
    },
    "cordova-plugin-uniquedeviceid": {
        "source": {
            "type": "registry",
            "id": "cordova-plugin-uniquedeviceid"
        },
        "is_top_level": true,
        "variables": {}
    },
    "cordova-plugin-geolocation": {
        "source": {
            "type": "registry",
            "id": "cordova-plugin-geolocation"
        },
        "is_top_level": true,
        "variables": {}
    },
    "cordova-plugin-facebook4": {
        "source": {
            "type": "registry",
            "id": "cordova-plugin-facebook4"
        },
        "is_top_level": true,
        "variables": {
            "APP_ID": "232845650520595",
            "APP_NAME": "water3"
        }
    },
    "phonegap-nfc": {
        "source": {
            "type": "registry",
            "id": "phonegap-nfc@^0.7.0"
        },
        "is_top_level": true,
        "variables": {}
    },
    "cordova-clipboard": {
        "source": {
            "type": "registry",
            "id": "cordova-clipboard@^1.1.0"
        },
        "is_top_level": true,
        "variables": {}
    }
}